Survivor (TV Series) Players - Exploratory Data Analysis and Modelling
…
 Its Rudy Boesch. Rudy Boesh was a player twice, 4 years apart, so about 8 seasons apart. Which seasons, I wonder?

surv_players %>%
  arrange(desc(age))

## # A tibble: 351 x 7
##    serial name          age sex   city      state mode                                    
##    <chr>  <chr>       <dbl> <chr> <chr>     <chr> <chr>                                   
##  1 17     Rudy Boesch    76 M     Virginia~ VA    n/a                                     
##  2 3      Rudy Boesch    72 M     Virginia~ VA    Recruit via Mark Burnett through EcoCha~
##  3 15     B.B. Ander~    64 M     Mission ~ KS    Applicant (Actually lived most of the t~
##  4 16     Sonja Chri~    63 F     Walnut C~ CA    Applicant                               
##  5 18     Jim Lynch      63 M     Northgle~ CO    Applicant                               
##  6 6      Jake Billi~    61 M     McKinney  TX    Applicant                               
##  7 17     Gillian La~    61 F     Temecula  CA    "Applicant (15 times) - Applicant \"Fod~
##  8 3      Scout Clou~    59 F     Stillwat~ OK    Applicant - (originally cast for S7 swa~
##  9 7      Bruce Kane~    58 M     Simi Val~ CA    Recruit - Believed to be known to casti~
## 10 2      Kim Johnson    57 F     Oyster B~ NY    Applicant                               
## # ... with 341 more rows
…
